('C:\\Users\\me\\Desktop\\probability\\dist\\probability edit.exe',
 True,
 False,
 False,
 None,
 None,
 False,
 False,
 '<?xml version="1.0" encoding="UTF-8" standalone="yes"?><assembly manifestVersion="1.0" xmlns="urn:schemas-microsoft-com:asm.v1"><assemblyIdentity name="probability edit" processorArchitecture="x86" type="win32" version="1.0.0.0"/><compatibility xmlns="urn:schemas-microsoft-com:compatibility.v1"><application><supportedOS Id="{8e0f7a12-bfb3-4fe8-b9a5-48fd50a15a9a}"/><supportedOS Id="{e2011457-1546-43c5-a5fe-008deee3d3f0}"/><supportedOS Id="{1f676c76-80e1-4239-95bb-83d0f6d0da78}"/><supportedOS Id="{35138b9a-5d96-4fbd-8e2d-a2440225f93a}"/><supportedOS Id="{4a2f28e3-53b9-4441-ba9c-d69d4a4a6e38}"/></application></compatibility></assembly>',
 True,
 'probability edit.pkg',
 [('out00-PYZ.pyz',
   'C:\\Users\\me\\Desktop\\probability\\build\\probability '
   'edit\\out00-PYZ.pyz',
   'PYZ'),
  ('struct',
   'C:\\Users\\me\\Desktop\\probability\\build\\probability '
   'edit\\localpycos\\struct.pyo',
   'PYMODULE'),
  ('pyimod01_os_path',
   'C:\\Users\\me\\Desktop\\probability\\build\\probability '
   'edit\\localpycos\\pyimod01_os_path.pyc',
   'PYMODULE'),
  ('pyimod02_archive',
   'C:\\Users\\me\\Desktop\\probability\\build\\probability '
   'edit\\localpycos\\pyimod02_archive.pyc',
   'PYMODULE'),
  ('pyimod03_importers',
   'C:\\Users\\me\\Desktop\\probability\\build\\probability '
   'edit\\localpycos\\pyimod03_importers.pyc',
   'PYMODULE'),
  ('pyiboot01_bootstrap',
   'c:\\program files '
   '(x86)\\python35-32\\lib\\site-packages\\PyInstaller\\loader\\pyiboot01_bootstrap.py',
   'PYSOURCE'),
  ('probability edit',
   'C:\\Users\\me\\Desktop\\probability\\probability edit.py',
   'PYSOURCE'),
  ('VCRUNTIME140.dll',
   'c:\\program files (x86)\\python35-32\\VCRUNTIME140.dll',
   'BINARY'),
  ('python35.dll',
   'c:\\program files (x86)\\python35-32\\python35.dll',
   'BINARY'),
  ('_ssl', 'c:\\program files (x86)\\python35-32\\DLLs\\_ssl.pyd', 'EXTENSION'),
  ('_ctypes',
   'c:\\program files (x86)\\python35-32\\DLLs\\_ctypes.pyd',
   'EXTENSION'),
  ('pyexpat',
   'c:\\program files (x86)\\python35-32\\DLLs\\pyexpat.pyd',
   'EXTENSION'),
  ('_hashlib',
   'c:\\program files (x86)\\python35-32\\DLLs\\_hashlib.pyd',
   'EXTENSION'),
  ('_lzma',
   'c:\\program files (x86)\\python35-32\\DLLs\\_lzma.pyd',
   'EXTENSION'),
  ('_socket',
   'c:\\program files (x86)\\python35-32\\DLLs\\_socket.pyd',
   'EXTENSION'),
  ('_bz2', 'c:\\program files (x86)\\python35-32\\DLLs\\_bz2.pyd', 'EXTENSION'),
  ('unicodedata',
   'c:\\program files (x86)\\python35-32\\DLLs\\unicodedata.pyd',
   'EXTENSION'),
  ('select',
   'c:\\program files (x86)\\python35-32\\DLLs\\select.pyd',
   'EXTENSION'),
  ('base_library.zip',
   'C:\\Users\\me\\Desktop\\probability\\build\\probability '
   'edit\\base_library.zip',
   'DATA'),
  ('probability edit.exe.manifest',
   'C:\\Users\\me\\Desktop\\probability\\build\\probability edit\\probability '
   'edit.exe.manifest',
   'BINARY'),
  ('pyi-windows-manifest-filename probability edit.exe.manifest',
   '',
   'OPTION')],
 [],
 False,
 False,
 1466926733,
 [('run.exe',
   'c:\\program files '
   '(x86)\\python35-32\\lib\\site-packages\\PyInstaller\\bootloader\\Windows-32bit\\run.exe',
   'EXECUTABLE')])
